<svg width="45" height="52" viewBox="0 0 45 52" fill="none" xmlns="http://www.w3.org/2000/svg">
<g filter="url(#filter0_d)">
<path d="M5 23.732C3.66666 22.9622 3.66667 21.0378 5 20.268L38 1.21539C39.3333 0.445588 41 1.40784 41 2.94744L41 41.0526C41 42.5922 39.3333 43.5544 38 42.7846L5 23.732Z" fill="url(#paint0_linear)"/>
</g>
<defs>
<filter id="filter0_d" x="0" y="0.944336" width="45" height="50.1111" filterUnits="userSpaceOnUse" color-interpolation-filters="sRGB">
<feFlood flood-opacity="0" result="BackgroundImageFix"/>
<feColorMatrix in="SourceAlpha" type="matrix" values="0 0 0 0 0 0 0 0 0 0 0 0 0 0 0 0 0 0 127 0"/>
<feOffset dy="4"/>
<feGaussianBlur stdDeviation="2"/>
<feColorMatrix type="matrix" values="0 0 0 0 0.972549 0 0 0 0 0.690196 0 0 0 0 0.8 0 0 0 1 0"/>
<feBlend mode="normal" in2="BackgroundImageFix" result="effect1_dropShadow"/>
<feBlend mode="normal" in="SourceGraphic" in2="effect1_dropShadow" result="shape"/>
</filter>
<linearGradient id="paint0_linear" x1="2" y1="22" x2="54" y2="22" gradientUnits="userSpaceOnUse">
<stop stop-color="#EE1490"/>
<stop offset="0.479167" stop-color="#F11492"/>
<stop offset="1" stop-color="#BB1066"/>
</linearGradient>
</defs>
</svg>
