<svg version="1.2" baseProfile="tiny-ps" xmlns="http://www.w3.org/2000/svg" viewBox="0 0 47 46" width="47" height="46">
	<title>Layer</title>
	<defs>
		<linearGradient id="grd1" gradientUnits="userSpaceOnUse"  x1="2.058" y1="3.638" x2="20.307" y2="44.554">
			<stop offset="0" stop-color="#fff131"  />
			<stop offset="0.234" stop-color="#c2f752"  />
			<stop offset="0.563" stop-color="#98f380"  />
			<stop offset="0.76" stop-color="#5bfeb5"  />
			<stop offset="0.958" stop-color="#00ffe5"  />
		</linearGradient>
	</defs>
	<style>
		tspan { white-space:pre }
		.shp0 { fill: url(#grd1) } 
	</style>
	<g id="Layer">
		<path id="Layer" class="shp0" d="M23.47 -0.04C25.32 -0.04 27.12 0.18 28.85 0.59L27.7 4.93C26.34 4.61 24.93 4.44 23.47 4.44C22.01 4.44 20.6 4.61 19.24 4.93L18.08 0.59C19.81 0.18 21.61 -0.04 23.47 -0.04ZM17 0.89L18.15 5.21C15.38 6.05 12.87 7.52 10.81 9.46L7.65 6.29C10.26 3.81 13.44 1.93 17 0.89ZM29.94 0.89C33.49 1.93 36.66 3.81 39.27 6.29L36.11 9.46C34.05 7.52 31.56 6.04 28.78 5.21L29.94 0.89ZM23.47 6.66C32.44 6.66 39.69 13.93 39.69 22.91C39.69 31.88 32.44 39.14 23.47 39.14C14.5 39.14 7.25 31.88 7.25 22.91C7.25 13.93 14.5 6.66 23.47 6.66ZM6.86 7.08L10.02 10.25C8.08 12.31 6.61 14.81 5.78 17.59L1.46 16.44C2.5 12.88 4.37 9.69 6.86 7.08ZM40.08 7.08C42.56 9.69 44.44 12.88 45.48 16.44L41.14 17.59C40.31 14.82 38.83 12.32 36.89 10.26L40.08 7.08ZM1.18 17.5L5.5 18.66C5.18 20.02 5.01 21.45 5.01 22.91C5.01 24.37 5.18 25.78 5.5 27.14L1.16 28.29C0.75 26.57 0.53 24.76 0.53 22.91C0.53 21.04 0.76 19.24 1.18 17.5ZM45.76 17.5C46.17 19.24 46.4 21.04 46.4 22.91C46.4 24.76 46.17 26.57 45.76 28.29L41.42 27.14C41.74 25.78 41.93 24.37 41.93 22.91C41.93 21.45 41.74 20.02 41.42 18.66L45.76 17.5ZM5.78 28.22C6.61 31 8.08 33.49 10.02 35.55L6.86 38.72C4.38 36.11 2.5 32.93 1.46 29.38L5.78 28.22ZM41.14 28.22L45.48 29.38C44.44 32.93 42.56 36.13 40.08 38.73L36.89 35.53C38.83 33.48 40.31 31 41.14 28.22ZM10.81 36.34C12.87 38.28 15.38 39.75 18.15 40.59L16.98 44.93C13.43 43.88 10.24 42.01 7.63 39.52L10.81 36.34ZM36.11 36.34L39.29 39.52C36.68 42 33.49 43.87 29.94 44.91L28.78 40.59C31.56 39.75 34.05 38.28 36.11 36.34ZM19.24 40.87C20.6 41.19 22.01 41.36 23.47 41.36C24.93 41.36 26.34 41.19 27.7 40.87L28.85 45.21C27.12 45.62 25.32 45.83 23.47 45.83C21.61 45.83 19.81 45.62 18.08 45.21L19.24 40.87Z" />
	</g>
</svg>