<svg width="352" height="205" viewBox="0 0 352 205" fill="none" xmlns="http://www.w3.org/2000/svg">
<path d="M1 1.32628H16.7813V40.2682H1V1.32628ZM40.298 10.4409V13.799C40.3168 13.7802 40.3733 13.7332 40.4673 13.6579C40.5615 13.5827 40.7027 13.4791 40.8908 13.3475L41.032 13.2628C42.0483 12.6608 43.187 12.1247 44.448 11.6544C45.7278 11.184 47.0453 10.789 48.4004 10.4692C49.7555 10.1494 51.1106 9.90477 52.4657 9.7355C53.8208 9.56617 55.0818 9.48153 56.2487 9.48153C57.8296 9.48153 59.4482 9.52854 61.1042 9.62261C62.7797 9.69787 64.4075 9.87657 65.9885 10.1588C67.5882 10.4221 69.094 10.8266 70.5054 11.3722C71.9361 11.9177 73.1779 12.6514 74.2321 13.5732C75.3049 14.4762 76.1516 15.605 76.7728 16.9595C77.3941 18.314 77.7043 19.9507 77.7043 21.8696V40.2682H61.9516V24.1553C61.9516 22.6691 61.2642 21.3616 59.8905 20.2329C59.42 19.9131 58.9212 19.6591 58.3943 19.471C57.8673 19.2828 57.3215 19.1512 56.7568 19.0759C56.1922 18.9818 55.6182 18.9254 55.0347 18.9066C54.4701 18.8878 53.9149 18.8784 53.3691 18.8784C52.6163 18.8784 51.7881 18.8972 50.8848 18.9348C50.0001 18.9724 49.0968 19.0665 48.1745 19.217C47.2523 19.3487 46.3583 19.5556 45.4925 19.8378C44.6456 20.1012 43.8928 20.4774 43.2341 20.9666C42.5753 21.4369 42.0389 22.0389 41.6249 22.7726C41.2296 23.4874 41.032 24.3528 41.032 25.3687V40.2682H25.2789V10.4409H40.298ZM106.331 9.45328C107.498 9.45328 108.693 9.50035 109.917 9.59436C111.14 9.66962 112.382 9.82013 113.643 10.0459C114.923 10.2716 116.203 10.5915 117.482 11.0053C118.762 11.4192 120.023 11.9554 121.266 12.6138C121.604 12.7831 121.915 12.9807 122.197 13.2064V0H137.978V40.2682H122.96V36.9102C122.451 37.3805 121.887 37.7756 121.266 38.0954C120.004 38.7538 118.734 39.29 117.454 39.7038C116.174 40.1177 114.904 40.4375 113.643 40.6632C112.382 40.889 111.14 41.0395 109.917 41.1148C108.693 41.2088 107.498 41.2559 106.331 41.2559C104.863 41.2559 103.451 41.2182 102.096 41.143C100.742 41.0865 99.4053 40.9455 98.0877 40.7197C96.7701 40.5128 95.4621 40.2024 94.1631 39.7885C92.8834 39.3558 91.5658 38.7914 90.211 38.0954C85.0915 35.3299 82.5321 31.0877 82.5321 25.3687C82.5321 19.6309 85.0915 15.3792 90.211 12.6138C91.5658 11.8989 92.8834 11.3345 94.1631 10.9207C95.4621 10.5068 96.7701 10.1964 98.0877 9.98946C99.4053 9.76369 100.742 9.62261 102.096 9.56617C103.451 9.49091 104.863 9.45328 106.331 9.45328ZM98.6523 25.3687C98.6523 26.3281 98.8406 27.1559 99.217 27.852C99.5928 28.5292 100.092 29.1124 100.713 29.6015C101.334 30.0718 102.04 30.4575 102.831 30.7585C103.639 31.0407 104.477 31.2664 105.343 31.4357C106.208 31.5862 107.065 31.6897 107.912 31.7461C108.778 31.8026 109.568 31.8308 110.283 31.8308C112.015 31.8308 113.605 31.7273 115.055 31.5204C116.523 31.2946 117.784 30.9372 118.838 30.448C119.91 29.9401 120.739 29.2817 121.322 28.4728C121.924 27.645 122.216 26.6103 122.197 25.3687C122.197 24.1271 121.896 23.0924 121.294 22.2646C120.71 21.4369 119.891 20.7784 118.838 20.2893C117.784 19.7814 116.523 19.424 115.055 19.217C113.605 18.9912 112.015 18.8784 110.283 18.8784C109.568 18.8784 108.778 18.9066 107.912 18.963C107.065 19.0195 106.208 19.1324 105.343 19.3016C104.477 19.4521 103.639 19.6779 102.831 19.9789C102.04 20.2611 101.334 20.6468 100.713 21.1359C100.092 21.6062 99.5928 22.1894 99.217 22.8854C98.8406 23.5815 98.6523 24.4092 98.6523 25.3687ZM148.537 10.4409H164.29V40.2682H148.537V10.4409ZM164.29 0V7.64728H148.537V0H164.29ZM172.957 25.4816C173.634 25.1806 174.387 24.9266 175.215 24.7196C176.063 24.5127 176.994 24.334 178.01 24.1835C179.045 24.0142 180.184 23.8731 181.426 23.7602C182.669 23.6473 184.033 23.5344 185.52 23.4216C192.314 22.9324 197.104 22.5092 199.89 22.1517C203.917 21.625 205.931 20.9572 205.931 20.1482C205.931 19.0571 203.428 18.4645 198.421 18.3704H196.163C195.015 18.3704 193.829 18.3987 192.606 18.4551C189.708 18.5868 188.07 19.1512 187.694 20.1482H171.122C171.291 18.8501 171.865 17.618 172.844 16.4516C173.822 15.2664 175.075 14.2128 176.599 13.2911C180.796 10.7325 187.27 9.45328 196.022 9.45328C197.302 9.45328 198.845 9.48153 200.652 9.53798C202.478 9.57554 204.378 9.69787 206.355 9.90476C208.331 10.1117 210.288 10.4409 212.227 10.8924C214.184 11.3252 215.934 11.9365 217.477 12.7267C219.021 13.5168 220.273 14.5139 221.232 15.7179C222.192 16.9219 222.672 18.3987 222.672 20.1482V36.9102C222.672 37.6251 222.785 38.2929 223.011 38.9137C223.256 39.5157 223.51 39.9672 223.773 40.2682H207.569C207.136 39.5157 206.919 38.688 206.919 37.7849V36.7126C205.658 37.5592 204.275 38.2741 202.769 38.8572C201.263 39.4216 199.702 39.8825 198.083 40.24C196.483 40.5974 194.864 40.8514 193.227 41.0019C191.608 41.1712 190.056 41.2559 188.569 41.2559C185.784 41.2559 183.186 41.1618 180.777 40.9737C178.368 40.8044 176.279 40.4093 174.51 39.7885C172.741 39.1677 171.348 38.2647 170.332 37.0795C169.315 35.8755 168.807 34.2576 168.807 32.2259C168.807 30.4575 169.155 29.0465 169.852 27.993C170.548 26.9207 171.583 26.0836 172.957 25.4816ZM190.404 33.1006H190.799C195.58 33.1006 199.513 32.5551 202.6 31.464C205.48 30.4104 206.919 29.0465 206.919 27.3722C206.486 27.6168 205.253 27.8802 203.221 28.1624C201.188 28.4257 198.337 28.7079 194.667 29.0089C190.206 29.3852 187.609 29.7332 186.875 30.053C186.159 30.3728 185.802 30.8149 185.802 31.3793C185.802 31.812 185.991 32.1506 186.367 32.3952C186.743 32.6209 187.185 32.7902 187.694 32.9031C188.202 32.9972 188.71 33.0536 189.218 33.0724C189.726 33.0912 190.121 33.1006 190.404 33.1006ZM232.271 13.2346V1.32628H246.894V13.2346C246.932 15.1723 246.556 16.8466 245.766 18.2576C244.994 19.6685 243.93 20.8349 242.575 21.7567C241.239 22.6785 239.677 23.3652 237.889 23.8167C236.12 24.2682 234.247 24.4939 232.271 24.4939V20.5433C233.513 20.4492 234.557 20.2517 235.405 19.9507C236.251 19.6309 236.929 19.1794 237.437 18.5962C237.964 18.013 238.341 17.2887 238.567 16.4233C238.792 15.5392 238.905 14.4762 238.905 13.2346H232.271ZM255.364 30.3634H273.065C273.065 30.8713 273.263 31.2946 273.658 31.6332C274.072 31.9531 274.646 32.207 275.38 32.3952C276.114 32.5833 276.989 32.715 278.006 32.7902C279.041 32.8655 280.17 32.9031 281.394 32.9031C282.73 32.9031 283.972 32.8843 285.12 32.8467C286.268 32.809 287.265 32.7244 288.113 32.5927C288.959 32.461 289.628 32.2729 290.117 32.0283C290.606 31.7649 290.851 31.4263 290.851 31.0124C290.851 30.5609 290.437 30.2317 289.609 30.0248C288.913 29.8931 287.473 29.7426 285.289 29.5733C283.125 29.404 280.179 29.2064 276.453 28.9807C273.329 28.8114 270.543 28.6139 268.096 28.3881C265.65 28.1436 263.626 27.7861 262.027 27.3158C257.923 26.0177 255.872 23.5627 255.872 19.9507C255.872 18.1259 256.437 16.5927 257.566 15.351C258.394 14.4292 259.373 13.6485 260.502 13.0088C261.65 12.3692 262.883 11.8331 264.201 11.4004C265.537 10.9677 266.92 10.6291 268.351 10.3845C269.781 10.1212 271.202 9.92358 272.614 9.79194C274.044 9.66024 275.427 9.57554 276.764 9.53798C278.119 9.50035 279.361 9.48153 280.49 9.48153C282.184 9.48153 284.066 9.54735 286.136 9.67905C288.225 9.79194 290.314 10.0459 292.403 10.4409C294.512 10.8172 296.516 11.3722 298.417 12.1059C300.318 12.8396 301.927 13.8272 303.244 15.0688C304.882 16.6115 305.766 17.9848 305.898 19.1888H288.593C288.611 18.9442 288.385 18.7373 287.915 18.568C287.463 18.3987 286.852 18.2576 286.08 18.1447C285.327 18.0318 284.461 17.9472 283.483 17.8907C282.504 17.8343 281.506 17.806 280.49 17.806C279.304 17.806 278.203 17.8155 277.187 17.8343C276.171 17.8343 275.286 17.8719 274.533 17.9472C273.799 18.0036 273.216 18.1071 272.783 18.2576C272.369 18.3892 272.162 18.5774 272.162 18.822C272.162 19.2546 272.726 19.5556 273.855 19.7249C274.778 19.8566 276.256 20.0071 278.288 20.1764C280.321 20.3269 282.946 20.5056 286.164 20.7126C289.759 20.9572 292.893 21.2205 295.565 21.5027C298.238 21.7661 300.459 22.2082 302.228 22.829C303.997 23.4498 305.315 24.334 306.181 25.4816C307.065 26.6291 307.507 28.2094 307.507 30.2223C307.507 31.5204 307.225 32.668 306.661 33.665C306.096 34.6621 305.362 35.5368 304.458 36.2894C303.574 37.0419 302.576 37.6815 301.466 38.2082C300.355 38.735 299.264 39.1677 298.191 39.5063C296.855 39.9014 295.481 40.2118 294.069 40.4375C292.676 40.6821 291.275 40.8608 289.863 40.9737C288.451 41.1054 287.03 41.1806 285.6 41.1994C284.188 41.2371 282.786 41.2559 281.394 41.2559C279.831 41.2559 278.015 41.2182 275.945 41.143C273.875 41.0865 271.757 40.889 269.593 40.5504C267.447 40.2118 265.358 39.6756 263.326 38.9419C261.312 38.2082 259.552 37.1641 258.046 35.8096C257.218 35.0948 256.559 34.3328 256.07 33.5239C255.599 32.6962 255.364 31.6427 255.364 30.3634ZM1 94.8496V54.5814H16.7531V67.7875C16.9037 67.6751 17.0636 67.5718 17.233 67.4774C17.4024 67.3836 17.5623 67.2892 17.7129 67.1955C18.9927 66.5366 20.2631 66.0004 21.5241 65.5869C22.804 65.1727 24.0744 64.853 25.3354 64.6276C26.5964 64.4015 27.8385 64.2513 29.0619 64.1755C30.2853 64.0818 31.4804 64.0349 32.6473 64.0349C34.1153 64.0349 35.5269 64.0721 36.882 64.1479C38.2371 64.2038 39.5734 64.345 40.8908 64.5711C42.2083 64.7778 43.507 65.088 44.7868 65.5021C46.0854 65.9157 47.4123 66.4801 48.7674 67.1955C53.8867 69.9605 56.4463 74.2121 56.4463 79.9502C56.4463 85.669 53.8867 89.9116 48.7674 92.6766C47.4123 93.3727 46.0854 93.9371 44.7868 94.3699C43.507 94.7835 42.2083 95.0943 40.8908 95.301C39.5734 95.5271 38.2371 95.6677 36.882 95.7242C35.5269 95.7993 34.1153 95.8372 32.6473 95.8372C31.4616 95.8372 30.2571 95.7903 29.0337 95.6959C27.8103 95.6208 26.5682 95.4706 25.3072 95.2445C24.065 95.0191 22.804 94.6993 21.5241 94.2852C20.2631 93.8716 18.9927 93.3355 17.7129 92.6766C17.0918 92.3568 16.5272 91.9619 16.0191 91.4919V94.8496H1ZM16.7531 79.9502C16.7531 80.9474 16.9412 81.8034 17.3177 82.5181C17.7129 83.2141 18.2305 83.8068 18.8704 84.2955C19.5103 84.7662 20.2444 85.1425 21.0725 85.4244C21.9006 85.7069 22.7569 85.9233 23.6415 86.0736C24.5261 86.2052 25.4013 86.2996 26.2671 86.3555C27.1516 86.3933 27.9609 86.412 28.6949 86.412C29.4289 86.412 30.2194 86.3837 31.0664 86.3278C31.9133 86.2713 32.7696 86.1673 33.6354 86.017C34.5011 85.8475 35.3293 85.6221 36.1198 85.3396C36.929 85.0391 37.6442 84.6532 38.2653 84.1831C38.8864 83.6938 39.3757 83.1108 39.7334 82.4333C40.1098 81.7372 40.298 80.9095 40.298 79.9502C40.298 78.9908 40.1098 78.1631 39.7334 77.467C39.3569 76.771 38.8582 76.1879 38.2371 75.7172C37.6349 75.2279 36.929 74.8426 36.1198 74.5601C35.3105 74.2596 34.4729 74.0335 33.6071 73.8833C32.7602 73.7138 31.9039 73.6007 31.0381 73.5442C30.1911 73.4877 29.4101 73.4595 28.6949 73.4595C26.9634 73.4595 25.3636 73.5725 23.8956 73.7985C22.4464 74.0053 21.1854 74.363 20.1126 74.8709C19.0586 75.3596 18.2305 76.0184 17.6283 76.8461C17.0448 77.6738 16.7531 78.7083 16.7531 79.9502ZM61.6972 65.0225H77.4506V94.8496H61.6972V65.0225ZM77.4506 54.5814V62.2287H61.6972V54.5814H77.4506ZM82.5887 78.9626C82.5887 73.5821 85.1481 69.5938 90.2675 66.9977C91.6224 66.3202 92.9496 65.7937 94.2479 65.4174C95.5655 65.0225 96.8735 64.7309 98.1725 64.5428C99.4894 64.3354 100.817 64.2038 102.153 64.1479C103.508 64.0914 104.919 64.0631 106.388 64.0631C107.554 64.0631 108.749 64.1004 109.973 64.1755C111.196 64.2513 112.439 64.3919 113.699 64.5993C114.96 64.8061 116.231 65.1072 117.511 65.5021C118.79 65.8784 120.061 66.3767 121.322 66.9977C121.943 67.2988 122.507 67.6655 123.015 68.0983V65.0225H138.035V90.7014C138.035 93.0908 137.639 95.188 136.849 96.9943C136.077 98.8193 134.986 100.24 133.574 101.256C128.963 104.51 121.661 106.137 111.666 106.137C110.368 106.137 108.966 106.1 107.461 106.024C105.955 105.968 104.345 105.874 102.633 105.742C101.221 105.629 99.8286 105.479 98.4545 105.291C97.0803 105.121 95.7351 104.858 94.4175 104.5C93.1186 104.143 91.8485 103.673 90.6061 103.089C89.3829 102.506 88.2066 101.744 87.0772 100.803C85.1012 99.2046 83.9718 97.4175 83.6898 95.4423H101.447C101.616 95.8558 101.946 96.1852 102.435 96.4299C102.924 96.6932 103.47 96.891 104.072 97.0226C104.675 97.1729 105.277 97.2762 105.88 97.3327C106.482 97.3893 106.971 97.4271 107.347 97.4458C108.006 97.4644 108.609 97.474 109.154 97.474C109.719 97.4926 110.246 97.5023 110.735 97.5023H112.542C113.012 97.5023 113.483 97.4926 113.953 97.474C114.424 97.474 114.904 97.4644 115.393 97.4458C116.296 97.4079 117.153 97.3141 117.962 97.1639C118.79 97.013 119.525 96.7683 120.164 96.4299C120.804 96.0915 121.312 95.6394 121.689 95.0756C122.065 94.5112 122.254 93.7959 122.254 92.9309V90.3913C122.027 90.5602 121.717 90.7393 121.322 90.9275C120.08 91.5478 118.819 92.0557 117.539 92.4512C116.259 92.8461 114.979 93.1563 113.699 93.3823C112.439 93.5891 111.196 93.7304 109.973 93.8055C108.749 93.8806 107.554 93.9185 106.388 93.9185C104.957 93.9185 103.555 93.8903 102.181 93.8338C100.826 93.7586 99.4804 93.6174 98.1442 93.4106C96.8266 93.2038 95.5186 92.9027 94.2197 92.5077C92.9213 92.1122 91.6037 91.5856 90.2675 90.9275C85.1481 88.3499 82.5887 84.3616 82.5887 78.9626ZM110.34 85.0295H111.441C111.986 85.0295 112.636 85.0198 113.389 85.0012C114.142 84.9826 114.923 84.9164 115.732 84.8034C116.56 84.691 117.369 84.5119 118.16 84.2679C118.95 84.0232 119.647 83.6842 120.249 83.2514C120.87 82.8 121.369 82.2265 121.745 81.5305C122.122 80.8344 122.291 79.9784 122.254 78.9626C122.254 77.5139 121.887 76.385 121.152 75.576C120.437 74.7675 119.534 74.1652 118.442 73.7703C117.369 73.3754 116.203 73.1397 114.942 73.0646C113.68 72.9708 112.514 72.9233 111.441 72.9233L107.432 72.9798C106.453 73.0177 105.447 73.1211 104.411 73.2906C103.395 73.4595 102.463 73.7703 101.616 74.2217C100.77 74.6545 100.073 75.2472 99.5273 75.9998C99.0005 76.7517 98.7365 77.7393 98.7365 78.9626C98.7365 80.4677 99.1322 81.6338 99.9224 82.4616C100.732 83.2706 101.72 83.8723 102.887 84.2679C104.072 84.6435 105.334 84.8696 106.67 84.9447C108.025 85.0012 109.248 85.0295 110.34 85.0295ZM143.286 78.9626C143.286 73.5821 145.846 69.5938 150.965 66.9977C152.32 66.3202 153.647 65.7937 154.946 65.4174C156.263 65.0225 157.571 64.7309 158.87 64.5428C160.187 64.3354 161.514 64.2038 162.85 64.1479C164.205 64.0914 165.617 64.0631 167.085 64.0631C168.251 64.0631 169.447 64.1004 170.67 64.1755C171.893 64.2513 173.136 64.3919 174.397 64.5993C175.658 64.8061 176.928 65.1072 178.208 65.5021C179.488 65.8784 180.758 66.3767 182.019 66.9977C182.64 67.2988 183.205 67.6655 183.713 68.0983V65.0225H198.732V90.7014C198.732 93.0908 198.337 95.188 197.546 96.9943C196.775 98.8193 195.683 100.24 194.271 101.256C189.661 104.51 182.358 106.137 172.364 106.137C171.065 106.137 169.663 106.1 168.158 106.024C166.652 105.968 165.043 105.874 163.33 105.742C161.918 105.629 160.526 105.479 159.152 105.291C157.778 105.121 156.432 104.858 155.115 104.5C153.816 104.143 152.546 103.673 151.304 103.089C150.08 102.506 148.904 101.744 147.774 100.803C145.798 99.2046 144.669 97.4175 144.387 95.4423H162.145C162.314 95.8558 162.643 96.1852 163.133 96.4299C163.621 96.6932 164.168 96.891 164.77 97.0226C165.372 97.1729 165.975 97.2762 166.577 97.3327C167.179 97.3893 167.668 97.4271 168.045 97.4458C168.704 97.4644 169.306 97.474 169.852 97.474C170.416 97.4926 170.943 97.5023 171.433 97.5023H173.239C173.71 97.5023 174.18 97.4926 174.651 97.474C175.121 97.474 175.601 97.4644 176.091 97.4458C176.994 97.4079 177.85 97.3141 178.66 97.1639C179.488 97.013 180.222 96.7683 180.861 96.4299C181.501 96.0915 182.009 95.6394 182.386 95.0756C182.762 94.5112 182.951 93.7959 182.951 92.9309V90.3913C182.725 90.5602 182.414 90.7393 182.019 90.9275C180.777 91.5478 179.516 92.0557 178.236 92.4512C176.956 92.8461 175.676 93.1563 174.397 93.3823C173.136 93.5891 171.893 93.7304 170.67 93.8055C169.447 93.8806 168.251 93.9185 167.085 93.9185C165.655 93.9185 164.252 93.8903 162.878 93.8338C161.523 93.7586 160.177 93.6174 158.841 93.4106C157.524 93.2038 156.216 92.9027 154.917 92.5077C153.618 92.1122 152.301 91.5856 150.965 90.9275C145.846 88.3499 143.286 84.3616 143.286 78.9626ZM171.037 85.0295H172.138C172.684 85.0295 173.334 85.0198 174.086 85.0012C174.839 84.9826 175.62 84.9164 176.429 84.8034C177.257 84.691 178.067 84.5119 178.857 84.2679C179.648 84.0232 180.344 83.6842 180.946 83.2514C181.567 82.8 182.066 82.2265 182.442 81.5305C182.819 80.8344 182.989 79.9784 182.951 78.9626C182.951 77.5139 182.584 76.385 181.849 75.576C181.134 74.7675 180.231 74.1652 179.14 73.7703C178.067 73.3754 176.9 73.1397 175.639 73.0646C174.378 72.9708 173.211 72.9233 172.138 72.9233L168.129 72.9798C167.151 73.0177 166.144 73.1211 165.109 73.2906C164.092 73.4595 163.161 73.7703 162.314 74.2217C161.467 74.6545 160.77 75.2472 160.224 75.9998C159.698 76.7517 159.434 77.7393 159.434 78.9626C159.434 80.4677 159.829 81.6338 160.62 82.4616C161.429 83.2706 162.417 83.8723 163.584 84.2679C164.77 84.6435 166.031 84.8696 167.367 84.9447C168.722 85.0012 169.945 85.0295 171.037 85.0295ZM211.436 92.7049C206.317 89.9399 203.757 85.6876 203.757 79.9502C203.757 77.8998 204.059 76.0935 204.661 74.5318C205.263 72.9708 206.082 71.6255 207.117 70.4967C208.171 69.3492 209.394 68.3898 210.787 67.6186C212.199 66.8474 213.704 66.2168 215.304 65.7275C216.904 65.2389 218.56 64.8812 220.273 64.6558C222.004 64.4112 223.708 64.2603 225.382 64.2038C226.568 64.1665 227.669 64.1383 228.686 64.1196C229.702 64.0817 230.643 64.0631 231.508 64.0631C233.316 64.0631 235.217 64.1004 237.211 64.1755C239.207 64.232 241.183 64.4112 243.14 64.7117C245.116 64.9942 247.008 65.427 248.815 66.0101C250.64 66.5931 252.268 67.4119 253.698 68.465C255.148 69.5187 256.343 70.8357 257.284 72.4154C258.243 73.9957 258.836 75.924 259.062 78.2004C259.138 78.9529 259.194 79.7241 259.232 80.5146C259.269 81.3044 259.288 82.1231 259.288 82.9695H220.47C220.884 83.9474 221.496 84.7193 222.305 85.2837C223.115 85.8475 224.028 86.2803 225.044 86.5815C226.079 86.8634 227.152 87.0515 228.262 87.1459C229.391 87.2211 230.474 87.2679 231.508 87.2872C232.148 87.2872 232.873 87.2589 233.682 87.2024C234.511 87.1459 235.348 87.0515 236.195 86.9199C237.042 86.7696 237.842 86.5719 238.595 86.3278C239.367 86.0832 240.015 85.7724 240.543 85.3961H258.356C257.735 87.0708 256.851 88.5002 255.703 89.6856C254.574 90.8517 253.265 91.8207 251.779 92.5919C250.311 93.3637 248.711 93.9654 246.979 94.3982C245.267 94.831 243.517 95.1508 241.728 95.3575C239.94 95.5836 238.171 95.7152 236.421 95.7525C234.67 95.809 233.033 95.8372 231.508 95.8372C229.89 95.8372 228.206 95.809 226.455 95.7525C224.705 95.7152 222.955 95.5836 221.204 95.3575C219.473 95.1508 217.77 94.84 216.094 94.4264C214.438 94.0123 212.885 93.4388 211.436 92.7049ZM220.47 76.9309H242.575C241.521 74.6359 239.282 73.2906 235.856 72.8957C235.103 72.8013 234.369 72.7358 233.654 72.6979C232.939 72.6414 232.224 72.6131 231.508 72.6131C230.812 72.6131 230.107 72.6414 229.391 72.6979C228.676 72.7358 227.942 72.8013 227.19 72.8957C223.764 73.2906 221.524 74.6359 220.47 76.9309ZM262.986 84.9447H280.688C280.688 85.4526 280.885 85.8758 281.281 86.2148C281.694 86.5346 282.269 86.7883 283.003 86.9764C283.737 87.1645 284.612 87.2962 285.628 87.3713C286.663 87.4471 287.793 87.4843 289.016 87.4843C290.352 87.4843 291.595 87.4657 292.743 87.4278C293.891 87.3906 294.888 87.3058 295.735 87.1742C296.582 87.0425 297.25 86.8544 297.739 86.6097C298.229 86.3465 298.474 86.0074 298.474 85.5939C298.474 85.1425 298.059 84.8131 297.231 84.6063C296.535 84.4746 295.095 84.3237 292.912 84.1549C290.747 83.9853 287.802 83.7876 284.075 83.5622C280.951 83.3926 278.165 83.1955 275.719 82.9695C273.272 82.7248 271.249 82.3678 269.649 81.8971C265.546 80.5994 263.495 78.1438 263.495 74.5318C263.495 72.7075 264.059 71.1741 265.189 69.9322C266.017 69.0108 266.996 68.2299 268.124 67.5904C269.272 66.9508 270.505 66.4146 271.823 65.9818C273.159 65.549 274.543 65.2106 275.973 64.966C277.404 64.7027 278.825 64.5049 280.236 64.3733C281.666 64.2416 283.05 64.1569 284.386 64.1196C285.741 64.0817 286.983 64.0631 288.113 64.0631C289.806 64.0631 291.688 64.1286 293.759 64.2603C295.848 64.3733 297.937 64.6276 300.026 65.0225C302.134 65.3988 304.138 65.9536 306.039 66.6875C307.94 67.4208 309.55 68.4085 310.867 69.6503C312.504 71.1927 313.389 72.5663 313.52 73.7703H296.215C296.234 73.5256 296.008 73.3189 295.537 73.1493C295.086 72.9798 294.474 72.8392 293.702 72.7262C292.949 72.6131 292.083 72.5284 291.105 72.4719C290.126 72.4154 289.129 72.3878 288.113 72.3878C286.927 72.3878 285.826 72.3967 284.809 72.4154C283.793 72.4154 282.908 72.4533 282.156 72.5284C281.422 72.5849 280.838 72.6883 280.406 72.8392C279.991 72.9708 279.784 73.159 279.784 73.4036C279.784 73.8358 280.349 74.1369 281.478 74.3065C282.4 74.4381 283.878 74.5883 285.91 74.7579C287.943 74.9081 290.569 75.0873 293.787 75.2941C297.382 75.5387 300.515 75.802 303.188 76.0839C305.861 76.3478 308.082 76.7896 309.851 77.4105C311.619 78.0315 312.937 78.9157 313.803 80.0632C314.688 81.2107 315.13 82.791 315.13 84.8034C315.13 86.1018 314.848 87.2493 314.283 88.2465C313.718 89.2438 312.984 90.1184 312.081 90.8709C311.196 91.6235 310.199 92.2631 309.088 92.7896C307.978 93.3162 306.886 93.749 305.813 94.0874C304.477 94.483 303.104 94.7931 301.692 95.0191C300.299 95.2638 298.897 95.4423 297.485 95.5553C296.074 95.6869 294.653 95.7621 293.223 95.7807C291.81 95.8186 290.409 95.8372 289.016 95.8372C287.454 95.8372 285.637 95.7993 283.567 95.7242C281.497 95.6677 279.38 95.4705 277.215 95.1315C275.07 94.7931 272.981 94.2569 270.948 93.5236C268.934 92.7896 267.174 91.7455 265.669 90.3913C264.84 89.6759 264.182 88.9144 263.692 88.1053C263.222 87.2776 262.986 86.2238 262.986 84.9447ZM316.287 73.7703V65.0225H324.898V55.2869H340.651V65.0225H352V73.7703H340.651V83.6469C340.651 85.7538 341.752 86.8075 343.954 86.8075C344.669 86.8075 347.351 86.7228 352 86.5532V95.4423L351.379 95.4705C348.593 95.6022 346.109 95.6959 343.926 95.7525C341.742 95.809 339.832 95.8372 338.195 95.8372H337.291C335.654 95.8186 334.082 95.7621 332.576 95.6677C331.071 95.5739 329.735 95.2259 328.568 94.6236C327.42 94.0219 326.507 93.0625 325.83 91.7455C325.171 90.4099 324.86 88.5098 324.898 86.0453V73.7703H316.287ZM8.6789 201.839C3.55966 199.074 1 194.832 1 189.113C1 183.375 3.55966 179.123 8.6789 176.358C10.147 175.624 11.7091 175.05 13.3653 174.637C15.0216 174.204 16.7154 173.884 18.4469 173.677C20.1973 173.451 21.9382 173.32 23.6698 173.282C25.4201 173.226 27.114 173.198 28.7514 173.198C30.3323 173.198 31.998 173.226 33.7483 173.282C35.4987 173.32 37.249 173.451 38.9994 173.677C40.7497 173.884 42.4624 174.204 44.1374 174.637C45.8125 175.05 47.3652 175.624 48.7956 176.358C50.96 177.543 52.6351 178.963 53.8208 180.619C55.0253 182.274 55.7029 184.071 55.8534 186.009H39.3099C39.0087 185.05 38.4441 184.316 37.616 183.808C36.8067 183.281 35.8845 182.895 34.8493 182.651C33.8142 182.387 32.7508 182.237 31.6592 182.199C30.5676 182.143 29.5983 182.114 28.7514 182.114C27.4716 182.114 26.1447 182.162 24.7708 182.256C23.3969 182.331 22.1452 182.595 21.016 183.046C19.8867 183.478 18.9551 184.165 18.2211 185.106C17.4871 186.046 17.1201 187.382 17.1201 189.113C17.1201 190.26 17.2894 191.229 17.6283 192.019C17.967 192.81 18.4281 193.468 19.0116 193.994C19.595 194.502 20.2631 194.898 21.016 195.18C21.7877 195.462 22.6064 195.669 23.4721 195.801C24.3379 195.932 25.2225 196.017 26.1258 196.054C27.0293 196.074 27.9045 196.083 28.7514 196.083C29.5607 196.083 30.5111 196.064 31.6027 196.026C32.6943 195.97 33.7577 195.819 34.7929 195.575C35.8281 195.33 36.7597 194.945 37.5878 194.418C38.4347 193.891 39.0087 193.148 39.3099 192.189H55.8534C55.7217 193.976 55.2135 195.547 54.329 196.901C53.4632 198.256 52.381 199.422 51.0824 200.4C49.7837 201.36 48.3345 202.141 46.7347 202.742C45.1538 203.345 43.5822 203.786 42.0201 204.069C39.8181 204.464 37.6066 204.718 35.3857 204.83C33.1837 204.943 30.9723 205 28.7514 205C27.1328 205 25.4483 204.972 23.698 204.915C21.9476 204.878 20.1973 204.746 18.4469 204.52C16.7154 204.314 15.0121 204.003 13.3371 203.589C11.6809 203.156 10.1281 202.573 8.6789 201.839ZM63.081 189.226C63.7581 188.925 64.511 188.671 65.3391 188.464C66.1864 188.257 67.1179 188.078 68.1342 187.928C69.1692 187.759 70.3082 187.617 71.55 187.504C72.7924 187.391 74.1569 187.278 75.6435 187.166C82.4377 186.677 87.2276 186.254 90.0131 185.896C94.0411 185.369 96.055 184.702 96.055 183.892C96.055 182.801 93.5515 182.209 88.5452 182.114H86.2871C85.1384 182.114 83.9532 182.143 82.7293 182.199C79.8314 182.331 78.1939 182.895 77.8174 183.892H61.2456C61.4152 182.595 61.9888 181.362 62.9679 180.196C63.9463 179.01 65.1977 177.957 66.7222 177.035C70.9198 174.477 77.3941 173.198 86.1457 173.198C87.4254 173.198 88.9685 173.226 90.7756 173.282C92.6014 173.32 94.5023 173.442 96.4784 173.649C98.4545 173.856 100.412 174.185 102.35 174.637C104.308 175.069 106.058 175.681 107.601 176.471C109.145 177.261 110.396 178.258 111.356 179.462C112.316 180.666 112.796 182.143 112.796 183.892V200.655C112.796 201.369 112.909 202.037 113.135 202.658C113.379 203.26 113.634 203.711 113.897 204.012H97.6919C97.2596 203.26 97.0431 202.432 97.0431 201.529V200.457C95.782 201.303 94.3989 202.019 92.8931 202.602C91.3872 203.166 89.8249 203.626 88.2066 203.984C86.607 204.342 84.9881 204.595 83.3506 204.746C81.7323 204.915 80.1796 205 78.6924 205C75.9069 205 73.3096 204.906 70.9005 204.718C68.4914 204.549 66.4023 204.154 64.6337 203.533C62.8645 202.912 61.4717 202.009 60.4551 200.824C59.4388 199.62 58.9307 198.002 58.9307 195.97C58.9307 194.202 59.2789 192.79 59.9752 191.737C60.6716 190.665 61.7068 189.828 63.081 189.226ZM80.5278 196.845H80.9229C85.7031 196.845 89.6366 196.299 92.7235 195.208C95.6034 194.154 97.0431 192.79 97.0431 191.116C96.6101 191.361 95.3773 191.624 93.3447 191.906C91.3121 192.17 88.4604 192.452 84.7902 192.753C80.3299 193.13 77.7326 193.478 76.999 193.797C76.2833 194.117 75.9261 194.559 75.9261 195.123C75.9261 195.556 76.1144 195.895 76.4908 196.139C76.8673 196.365 77.3093 196.534 77.8174 196.647C78.3256 196.742 78.8337 196.798 79.3419 196.817C79.85 196.835 80.2451 196.845 80.5278 196.845ZM117.482 194.107H135.184C135.184 194.615 135.381 195.039 135.776 195.378C136.19 195.697 136.765 195.951 137.498 196.139C138.232 196.327 139.107 196.459 140.124 196.534C141.159 196.61 142.288 196.647 143.512 196.647C144.848 196.647 146.09 196.629 147.239 196.591C148.387 196.553 149.384 196.469 150.231 196.337C151.078 196.205 151.746 196.017 152.235 195.773C152.725 195.509 152.969 195.17 152.969 194.757C152.969 194.305 152.555 193.976 151.727 193.769C151.031 193.637 149.591 193.487 147.407 193.318C145.243 193.148 142.298 192.95 138.571 192.725C135.447 192.555 132.661 192.358 130.214 192.132C127.768 191.888 125.744 191.531 124.145 191.06C120.042 189.762 117.99 187.307 117.99 183.695C117.99 181.87 118.555 180.337 119.685 179.095C120.513 178.174 121.491 177.393 122.62 176.753C123.768 176.114 125.001 175.577 126.319 175.145C127.655 174.712 129.038 174.373 130.469 174.129C131.899 173.865 133.32 173.668 134.732 173.536C136.162 173.404 137.546 173.32 138.882 173.282C140.237 173.245 141.479 173.226 142.608 173.226C144.302 173.226 146.184 173.291 148.255 173.423C150.343 173.536 152.432 173.79 154.522 174.185C156.63 174.562 158.634 175.116 160.535 175.85C162.436 176.584 164.045 177.571 165.362 178.813C167 180.356 167.885 181.729 168.016 182.933H150.711C150.729 182.688 150.504 182.482 150.033 182.312C149.581 182.143 148.97 182.002 148.198 181.889C147.445 181.776 146.579 181.691 145.601 181.635C144.622 181.578 143.625 181.551 142.608 181.551C141.423 181.551 140.322 181.56 139.305 181.578C138.289 181.578 137.404 181.616 136.651 181.691C135.917 181.748 135.334 181.851 134.901 182.002C134.487 182.134 134.28 182.322 134.28 182.566C134.28 182.999 134.845 183.3 135.974 183.469C136.896 183.601 138.374 183.751 140.406 183.921C142.439 184.071 145.065 184.25 148.282 184.457C151.877 184.702 155.011 184.965 157.684 185.247C160.356 185.511 162.577 185.952 164.346 186.573C166.115 187.194 167.433 188.078 168.299 189.226C169.184 190.373 169.626 191.954 169.626 193.966C169.626 195.265 169.344 196.412 168.779 197.409C168.214 198.407 167.48 199.281 166.577 200.034C165.692 200.786 164.694 201.426 163.584 201.952C162.473 202.479 161.382 202.912 160.309 203.25C158.973 203.646 157.599 203.956 156.187 204.182C154.795 204.427 153.393 204.605 151.981 204.718C150.569 204.85 149.148 204.925 147.718 204.944C146.306 204.981 144.905 205 143.512 205C141.949 205 140.133 204.962 138.063 204.887C135.993 204.83 133.876 204.633 131.711 204.294C129.566 203.956 127.476 203.42 125.444 202.686C123.43 201.952 121.67 200.908 120.164 199.554C119.336 198.839 118.678 198.077 118.188 197.268C117.717 196.44 117.482 195.387 117.482 194.107ZM174.397 174.185H190.15V204.012H174.397V174.185ZM190.15 163.744V171.391H174.397V163.744H190.15ZM214.316 174.185V177.543C214.335 177.524 214.391 177.477 214.485 177.402C214.579 177.327 214.72 177.223 214.908 177.092L215.05 177.007C216.066 176.405 217.205 175.869 218.466 175.398C219.746 174.928 221.063 174.533 222.418 174.214C223.773 173.894 225.129 173.649 226.483 173.48C227.838 173.311 229.099 173.226 230.267 173.226C231.848 173.226 233.466 173.273 235.122 173.367C236.798 173.442 238.425 173.621 240.006 173.903C241.606 174.167 243.112 174.571 244.523 175.116C245.954 175.662 247.196 176.396 248.25 177.318C249.323 178.22 250.169 179.349 250.791 180.704C251.412 182.058 251.722 183.695 251.722 185.614V204.012H235.969V187.899C235.969 186.413 235.282 185.106 233.909 183.977C233.438 183.657 232.939 183.403 232.412 183.215C231.885 183.027 231.34 182.895 230.775 182.82C230.21 182.726 229.636 182.67 229.053 182.651C228.488 182.632 227.933 182.622 227.387 182.622C226.634 182.622 225.806 182.642 224.903 182.679C224.018 182.717 223.115 182.81 222.192 182.961C221.27 183.093 220.376 183.3 219.511 183.582C218.663 183.846 217.91 184.222 217.252 184.711C216.593 185.181 216.057 185.783 215.643 186.517C215.248 187.232 215.05 188.097 215.05 189.113V204.012H199.297V174.185H214.316ZM264.229 201.839C259.109 199.074 256.55 194.832 256.55 189.113C256.55 183.413 259.109 179.161 264.229 176.358C265.697 175.624 267.259 175.05 268.915 174.637C270.571 174.204 272.265 173.884 273.997 173.677C275.747 173.451 277.488 173.32 279.22 173.282C280.97 173.226 282.664 173.198 284.301 173.198C285.939 173.198 287.623 173.226 289.354 173.282C291.105 173.32 292.846 173.451 294.577 173.677C296.328 173.884 298.031 174.204 299.687 174.637C301.343 175.05 302.906 175.624 304.374 176.358C309.493 179.161 312.052 183.413 312.052 189.113C312.052 194.832 309.493 199.074 304.374 201.839C302.924 202.573 301.363 203.156 299.687 203.589C298.031 204.003 296.328 204.314 294.577 204.52C292.846 204.746 291.105 204.878 289.354 204.915C287.605 204.972 285.92 205 284.301 205C282.682 205 280.998 204.972 279.248 204.915C277.497 204.878 275.747 204.746 273.997 204.52C272.265 204.314 270.562 204.003 268.887 203.589C267.231 203.156 265.678 202.573 264.229 201.839ZM272.67 189.113C272.67 190.844 273.037 192.179 273.771 193.12C274.505 194.061 275.436 194.757 276.566 195.208C277.695 195.641 278.947 195.895 280.321 195.97C281.694 196.045 283.022 196.083 284.301 196.083C285.562 196.083 286.87 196.045 288.225 195.97C289.599 195.876 290.851 195.613 291.98 195.18C293.128 194.747 294.069 194.061 294.803 193.12C295.537 192.161 295.905 190.825 295.905 189.113C295.905 187.965 295.735 186.996 295.396 186.207C295.057 185.416 294.596 184.767 294.013 184.259C293.448 183.733 292.78 183.328 292.008 183.046C291.255 182.764 290.446 182.557 289.581 182.425C288.715 182.274 287.83 182.19 286.927 182.171C286.024 182.134 285.148 182.114 284.301 182.114C283.455 182.114 282.579 182.134 281.676 182.171C280.772 182.19 279.888 182.265 279.022 182.397C278.175 182.529 277.366 182.735 276.594 183.018C275.823 183.3 275.145 183.704 274.562 184.231C273.978 184.739 273.517 185.398 273.178 186.207C272.839 186.996 272.67 187.965 272.67 189.113ZM320.522 204.012V192.104H335.146V204.012H320.522Z" fill="#F3F3F3"/>
<path d="M1.28131 114.319V113H0V114.319H1.28131ZM16.9912 114.319H18.2725V113H16.9912V114.319ZM16.9912 155.667V156.986H18.2725V155.667H16.9912ZM1.28131 155.667H0V156.986H1.28131V155.667ZM1.28131 115.637H16.9912V113H1.28131V115.637ZM15.7098 114.319V155.667H18.2725V114.319H15.7098ZM16.9912 154.348H1.28131V156.986H16.9912V154.348ZM2.56262 155.667V114.319H0V155.667H2.56262ZM27.5207 125.04V123.721H26.2393V125.04H27.5207ZM43.2305 125.04H44.5118V123.721H43.2305V125.04ZM43.2305 155.667V156.986H44.5118V155.667H43.2305ZM27.5207 155.667H26.2393V156.986H27.5207V155.667ZM43.2305 114.319H44.5118V113H43.2305V114.319ZM43.2305 122.171V123.49H44.5118V122.171H43.2305ZM27.5207 122.171H26.2393V123.49H27.5207V122.171ZM27.5207 114.319V113H26.2393V114.319H27.5207ZM27.5207 126.359H43.2305V123.721H27.5207V126.359ZM41.9492 125.04V155.667H44.5118V125.04H41.9492ZM43.2305 154.348H27.5207V156.986H43.2305V154.348ZM28.802 155.667V125.04H26.2393V155.667H28.802ZM41.9492 114.319V122.171H44.5118V114.319H41.9492ZM43.2305 120.852H27.5207V123.49H43.2305V120.852ZM28.802 122.171V114.319H26.2393V122.171H28.802ZM27.5207 115.637H43.2305V113H27.5207V115.637ZM64.2611 125.04L65.3919 124.419L65.0299 123.721H64.2611V125.04ZM74.5097 144.802L73.3789 145.422L74.511 147.605L75.6405 145.421L74.5097 144.802ZM84.7294 125.04V123.721H83.96L83.5981 124.42L84.7294 125.04ZM102.776 125.04L103.859 125.743L105.1 123.721H102.776V125.04ZM83.9972 155.667V156.986H84.7038L85.0812 156.371L83.9972 155.667ZM65.0216 155.667L63.9382 156.371L64.3156 156.986H65.0216V155.667ZM46.2148 125.04V123.721H43.8893L45.1317 125.744L46.2148 125.04ZM63.131 125.661L73.3789 145.422L75.6398 144.18L65.3919 124.419L63.131 125.661ZM75.6405 145.421L85.8602 125.66L83.5981 124.42L73.3783 144.182L75.6405 145.421ZM84.7294 126.359H102.776V123.721H84.7294V126.359ZM101.692 124.336L82.9138 154.964L85.0812 156.371L103.859 125.743L101.692 124.336ZM83.9972 154.348H65.0216V156.986H83.9972V154.348ZM66.1049 154.963L47.298 124.335L45.1317 125.744L63.9382 156.371L66.1049 154.963ZM46.2148 126.359H64.2611V123.721H46.2148V126.359ZM108.998 153.465L108.389 154.625L108.404 154.633L108.419 154.641L108.998 153.465ZM104.69 130.661L103.747 129.77L103.746 129.77L104.69 130.661ZM108.35 127.706L107.735 126.549L107.73 126.552L108.35 127.706ZM117.81 124.663L117.978 125.97L117.983 125.97L117.989 125.969L117.81 124.663ZM122.906 124.199L122.865 122.881L122.863 122.882L122.906 124.199ZM126.2 124.113L126.223 125.431H126.236L126.247 125.43L126.2 124.113ZM134.703 124.17L134.654 125.488H134.66L134.666 125.489L134.703 124.17ZM140.615 124.721L140.42 126.024L140.427 126.026L140.433 126.026L140.615 124.721ZM146.273 126.054L145.88 127.309L145.883 127.31L146.273 126.054ZM151.144 128.575L150.384 129.636L150.39 129.642L151.144 128.575ZM154.72 132.631L153.619 133.306L153.622 133.311L153.624 133.316L154.72 132.631ZM156.493 138.571L155.218 138.702V138.703L156.493 138.571ZM156.719 143.468V144.787H158V143.468H156.719ZM118.007 143.468V142.15H116.074L116.827 143.982L118.007 143.468ZM122.568 147.177L122.204 148.442L122.217 148.446L122.231 148.45L122.568 147.177ZM125.778 147.757L125.669 149.071L125.681 149.072L125.692 149.073L125.778 147.757ZM129.015 147.902L128.992 149.22L129.003 149.221H129.015V147.902ZM131.183 147.815L131.096 146.499L131.094 146.499L131.183 147.815ZM133.689 147.525L133.886 148.828L133.899 148.826L133.913 148.823L133.689 147.525ZM136.082 146.917L135.694 145.659L135.69 145.661L135.686 145.662L136.082 146.917ZM138.024 145.96V144.641H137.614L137.28 144.887L138.024 145.96ZM155.79 145.96L156.991 146.419L157.631 144.641H155.79V145.96ZM153.143 150.365L152.223 149.447L153.143 150.365ZM149.229 153.349L148.639 152.179L148.634 152.182L149.229 153.349ZM144.444 155.204L144.133 153.924L144.13 153.925L144.444 155.204ZM139.207 156.189L139.06 154.879L139.053 154.879L139.046 154.881L139.207 156.189ZM133.914 156.594L133.886 155.276H133.879H133.873L133.914 156.594ZM123.975 156.594L124.017 155.276H124.01H124.003L123.975 156.594ZM118.739 156.189L118.903 154.881L118.897 154.88L118.891 154.879L118.739 156.189ZM113.644 155.233L113.332 156.512L113.336 156.512L113.644 155.233ZM118.007 137.268L116.842 136.717L116.009 138.586H118.007V137.268ZM140.051 137.268V138.586H142.05L141.216 136.717L140.051 137.268ZM133.351 133.124L133.192 134.432L133.198 134.433L133.204 134.434L133.351 133.124ZM131.155 132.921L131.054 134.236L131.071 134.237L131.087 134.238L131.155 132.921ZM126.904 132.921L126.971 134.238L126.988 134.237L127.004 134.236L126.904 132.921ZM124.708 133.124L124.854 134.434L124.861 134.433L124.867 134.432L124.708 133.124ZM109.607 152.305C107.221 150.978 105.491 149.329 104.352 147.381C103.214 145.434 102.621 143.112 102.621 140.368H100.058C100.058 143.515 100.743 146.323 102.157 148.741C103.57 151.158 105.669 153.113 108.389 154.625L109.607 152.305ZM102.621 140.368C102.621 138.389 102.904 136.701 103.437 135.279L101.046 134.33C100.377 136.115 100.058 138.135 100.058 140.368H102.621ZM103.437 135.279C103.985 133.815 104.72 132.579 105.635 131.552L103.746 129.77C102.595 131.061 101.699 132.588 101.046 134.33L103.437 135.279ZM105.634 131.553C106.59 130.482 107.7 129.584 108.971 128.859L107.73 126.552C106.222 127.412 104.893 128.484 103.747 129.77L105.634 131.553ZM108.965 128.863C110.294 128.115 111.714 127.503 113.23 127.025L112.48 124.503C110.805 125.031 109.223 125.712 107.735 126.549L108.965 128.863ZM113.23 127.025C114.755 126.545 116.337 126.193 117.978 125.97L117.643 123.356C115.867 123.597 114.145 123.979 112.48 124.503L113.23 127.025ZM117.989 125.969C119.673 125.724 121.326 125.574 122.949 125.517L122.863 122.882C121.145 122.941 119.4 123.1 117.631 123.357L117.989 125.969ZM122.946 125.517C124.124 125.479 125.216 125.45 126.223 125.431L126.176 122.794C125.156 122.813 124.052 122.843 122.865 122.881L122.946 125.517ZM126.247 125.43C127.248 125.392 128.17 125.374 129.015 125.374V122.736C128.134 122.736 127.179 122.756 126.152 122.795L126.247 125.43ZM129.015 125.374C130.8 125.374 132.679 125.412 134.654 125.488L134.751 122.853C132.747 122.775 130.835 122.736 129.015 122.736V125.374ZM134.666 125.489C136.603 125.545 138.521 125.724 140.42 126.024L140.809 123.418C138.805 123.1 136.781 122.911 134.738 122.852L134.666 125.489ZM140.433 126.026C142.336 126.306 144.151 126.734 145.88 127.309L146.667 124.799C144.793 124.176 142.835 123.715 140.796 123.416L140.433 126.026ZM145.883 127.31C147.582 127.869 149.078 128.646 150.384 129.636L151.904 127.513C150.357 126.34 148.607 125.437 146.664 124.798L145.883 127.31ZM150.39 129.642C151.691 130.615 152.766 131.833 153.619 133.306L155.82 131.957C154.796 130.185 153.487 128.698 151.898 127.509L150.39 129.642ZM153.624 133.316C154.462 134.734 155.007 136.515 155.218 138.702L157.769 138.441C157.528 135.953 156.892 133.773 155.815 131.947L153.624 133.316ZM155.218 138.703C155.291 139.452 155.346 140.221 155.382 141.01L157.942 140.885C157.904 140.052 157.846 139.237 157.768 138.44L155.218 138.703ZM155.382 141.01C155.419 141.8 155.437 142.618 155.437 143.468H158C158 142.58 157.981 141.718 157.942 140.885L155.382 141.01ZM156.719 142.15H118.007V144.787H156.719V142.15ZM116.827 143.982C117.327 145.197 118.084 146.194 119.104 146.926L120.57 144.763C119.976 144.337 119.513 143.749 119.187 142.955L116.827 143.982ZM119.104 146.926C120.032 147.592 121.069 148.095 122.204 148.442L122.932 145.913C122.041 145.641 121.256 145.256 120.57 144.763L119.104 146.926ZM122.231 148.45C123.341 148.761 124.487 148.967 125.669 149.071L125.886 146.443C124.852 146.352 123.859 146.173 122.905 145.905L122.231 148.45ZM125.692 149.073C126.837 149.151 127.937 149.2 128.992 149.22L129.038 146.583C128.029 146.564 126.97 146.517 125.863 146.441L125.692 149.073ZM129.015 149.221C129.69 149.221 130.443 149.19 131.272 149.13L131.094 146.499C130.309 146.555 129.617 146.583 129.015 146.583V149.221ZM131.271 149.13C132.134 149.07 133.006 148.969 133.886 148.828L133.492 146.222C132.683 146.352 131.884 146.444 131.096 146.499L131.271 149.13ZM133.913 148.823C134.811 148.659 135.666 148.442 136.478 148.171L135.686 145.662C134.996 145.893 134.256 146.082 133.465 146.226L133.913 148.823ZM136.469 148.174C137.336 147.891 138.111 147.517 138.769 147.034L137.28 144.887C136.887 145.176 136.367 145.44 135.694 145.659L136.469 148.174ZM138.024 147.279H155.79V144.641H138.024V147.279ZM154.588 145.502C154.025 147.064 153.234 148.372 152.223 149.447L154.064 151.282C155.342 149.923 156.315 148.295 156.991 146.419L154.588 145.502ZM152.223 149.447C151.196 150.54 150.003 151.45 148.639 152.179L149.82 154.52C151.422 153.664 152.838 152.585 154.064 151.282L152.223 149.447ZM148.634 152.182C147.266 152.922 145.768 153.504 144.133 153.924L144.754 156.483C146.573 156.015 148.265 155.361 149.826 154.517L148.634 152.182ZM144.13 153.925C142.478 154.355 140.787 154.673 139.06 154.879L139.354 157.499C141.192 157.28 142.994 156.941 144.758 156.482L144.13 153.925ZM139.046 154.881C137.306 155.107 135.586 155.239 133.886 155.276L133.941 157.913C135.733 157.873 137.541 157.734 139.368 157.497L139.046 154.881ZM133.873 155.276C132.139 155.334 130.52 155.363 129.015 155.363V158C130.551 158 132.198 157.971 133.956 157.912L133.873 155.276ZM129.015 155.363C127.416 155.363 125.75 155.334 124.017 155.276L123.934 157.912C125.692 157.971 127.386 158 129.015 158V155.363ZM124.003 155.276C122.304 155.239 120.604 155.107 118.903 154.881L118.575 157.497C120.365 157.734 122.157 157.873 123.948 157.913L124.003 155.276ZM118.891 154.879C117.216 154.674 115.569 154.364 113.95 153.952L113.336 156.512C115.058 156.951 116.808 157.279 118.587 157.498L118.891 154.879ZM113.954 153.954C112.39 153.551 110.932 152.995 109.577 152.289L108.419 154.641C109.954 155.442 111.593 156.064 113.332 156.512L113.954 153.954ZM118.007 138.586H140.051V135.949H118.007V138.586ZM141.216 136.717C139.913 133.796 137.177 132.251 133.498 131.814L133.204 134.434C136.357 134.808 138.088 136.026 138.887 137.818L141.216 136.717ZM133.51 131.816C132.731 131.715 131.968 131.645 131.223 131.605L131.087 134.238C131.768 134.275 132.47 134.34 133.192 134.432L133.51 131.816ZM131.256 131.606C130.509 131.546 129.762 131.515 129.015 131.515V134.153C129.695 134.153 130.374 134.181 131.054 134.236L131.256 131.606ZM129.015 131.515C128.286 131.515 127.548 131.546 126.803 131.606L127.004 134.236C127.685 134.181 128.356 134.153 129.015 134.153V131.515ZM126.837 131.605C126.091 131.645 125.328 131.715 124.549 131.816L124.867 134.432C125.589 134.34 126.29 134.275 126.971 134.238L126.837 131.605ZM124.561 131.814C120.882 132.251 118.146 133.796 116.842 136.717L119.172 137.818C119.971 136.026 121.702 134.808 124.854 134.434L124.561 131.814Z" fill="white"/>
</svg>
