<svg width="24" height="24" viewBox="0 0 24 24" fill="none" xmlns="http://www.w3.org/2000/svg">
<path d="M5.69849 2.37815C5.69531 2.39829 5.71365 2.40279 5.73405 2.40279C5.9397 2.40279 6.14672 2.40279 6.37799 2.40279C6.84098 2.40279 7.16779 2.23927 7.4129 1.85775C7.65802 1.47622 7.90313 1.09469 8.14824 0.740414C8.6657 -0.0226421 9.48274 -0.213406 10.2725 0.249878C10.6811 0.467894 11.0896 0.713162 11.4981 0.931178C11.8249 1.12194 12.1517 1.09469 12.5058 0.931178C12.9143 0.713162 13.2956 0.467894 13.7041 0.249878C14.5212 -0.213406 15.311 -0.0226421 15.8284 0.740414C16.0735 1.12194 16.3186 1.47622 16.5638 1.85775C16.8089 2.23927 17.1084 2.43004 17.5714 2.40279C18.0344 2.37553 18.4974 2.37553 18.9604 2.34828C19.8319 2.34828 20.4855 2.97508 20.54 3.84714C20.5672 4.28317 20.6217 4.74646 20.649 5.18249C20.7034 5.61852 20.8941 5.91829 21.3026 6.08181C21.7111 6.27257 22.1196 6.46334 22.5281 6.68135C23.318 7.09013 23.5903 7.88044 23.2635 8.67075C23.1001 9.10678 22.9094 9.54281 22.7188 9.97884C22.5554 10.3604 22.6098 10.6874 22.8277 11.0144C23.1001 11.3687 23.3724 11.7502 23.6448 12.1318C24.1895 12.8676 24.1078 13.7124 23.3997 14.3119C23.0728 14.5844 22.746 14.8842 22.4192 15.1295C22.0107 15.4292 21.8745 15.8108 21.9835 16.3013C22.0652 16.7646 22.1469 17.2279 22.1741 17.6912C22.2558 18.536 21.7656 19.2173 20.9213 19.3808C20.5128 19.4625 20.1043 19.5716 19.6957 19.6533C19.2327 19.7351 18.9332 19.9803 18.797 20.4436C18.6608 20.8796 18.4974 21.3157 18.3612 21.7245C18.0889 22.5148 17.3536 22.8963 16.5365 22.7055C16.0735 22.5965 15.6378 22.4603 15.202 22.324C14.7663 22.1877 14.385 22.2695 14.0582 22.6238C13.7313 22.9508 13.4045 23.2506 13.0777 23.5503C12.4241 24.1499 11.607 24.1499 10.9534 23.5503C10.6266 23.2506 10.2725 22.9235 9.94573 22.6238C9.64615 22.324 9.2921 22.215 8.85634 22.3513C8.39335 22.4875 7.9576 22.6238 7.49461 22.7328C6.65033 22.9508 5.915 22.5148 5.64265 21.6972C5.50648 21.2612 5.34307 20.8524 5.2069 20.4164C5.07072 19.9803 4.79838 19.7351 4.36262 19.6533C3.92687 19.5716 3.49111 19.4625 3.05536 19.3808C2.23832 19.2173 1.74809 18.536 1.8298 17.7184C1.88427 17.2551 1.96597 16.7918 2.02044 16.3013C2.10214 15.838 1.99321 15.4565 1.61192 15.1567C1.25787 14.8842 0.931054 14.5844 0.577003 14.2847C-0.0766289 13.7124 -0.185567 12.8676 0.304657 12.1318C0.577003 11.7502 0.84935 11.3959 1.1217 11.0417C1.36681 10.7146 1.42128 10.3604 1.25787 9.95159C1.06723 9.51556 0.903819 9.05228 0.713176 8.61624C0.413595 7.88044 0.685942 7.09013 1.36681 6.68135C1.80256 6.43608 2.23832 6.24532 2.70131 6.0273C3.10983 5.83654 3.3277 5.53677 3.35494 5.10073C3.40941 4.63745 3.43664 4.20142 3.46388 3.73813C3.51835 2.92057 4.17198 2.29378 4.98902 2.29378C5.20711 2.29378 5.4252 2.29378 5.66247 2.29378C5.69536 2.29378 5.70362 2.34566 5.69849 2.37815ZM19.7774 11.9955C19.7774 7.60792 16.2097 4.09241 11.8249 4.14691C7.52184 4.22867 4.06304 7.79868 4.11751 12.05C4.17198 16.4376 7.73972 19.9258 12.0973 19.8441C16.4003 19.7623 19.7774 16.2196 19.7774 11.9955Z" fill="url(#paint0_linear)"/>
<path d="M11.9882 5.12793C15.7466 5.15518 18.7696 8.18015 18.7969 11.9137C18.8241 15.8925 15.7466 18.9447 11.7703 18.8629C8.06642 18.8084 5.07061 15.729 5.09784 11.9682C5.09784 8.18016 8.17536 5.12793 11.9882 5.12793ZM12.4932 11.0307C11.6429 11.999 10.1802 12.076 9.18304 11.2596C8.52941 10.6873 8.39324 10.7146 7.79407 11.3141C7.49449 11.6139 7.44002 11.8319 7.68513 12.1862C7.98472 12.6495 8.33877 13.0855 8.69282 13.5215C9.34645 14.3391 9.97285 15.1839 10.6265 16.0015C10.8444 16.274 11.1439 16.274 11.3618 16.0015C11.4163 15.9197 11.4708 15.8652 11.5252 15.7835C13.0504 13.6578 14.5755 11.5322 16.1006 9.4065C16.1551 9.32474 16.2368 9.21573 16.2913 9.10672C16.4275 8.8342 16.4002 8.64344 16.1823 8.45267C16.0189 8.31641 15.8555 8.18016 15.6649 8.07115C15.447 7.90763 15.2564 7.93489 15.093 8.12565C14.8479 8.39817 14.5755 8.69794 14.3304 8.99771C13.7 9.67253 13.0933 10.3474 12.4932 11.0307Z" fill="url(#paint1_linear)"/>
<defs>
<linearGradient id="paint0_linear" x1="12" y1="0" x2="12" y2="24" gradientUnits="userSpaceOnUse">
<stop stop-color="#E9178D"/>
<stop offset="0.526042" stop-color="#FE7EC3"/>
<stop offset="1" stop-color="#C21770"/>
</linearGradient>
<linearGradient id="paint1_linear" x1="11.9474" y1="5.12793" x2="11.9474" y2="18.8645" gradientUnits="userSpaceOnUse">
<stop stop-color="#E9178D"/>
<stop offset="0.526042" stop-color="#FE7EC3"/>
<stop offset="1" stop-color="#C21770"/>
</linearGradient>
</defs>
</svg>
